{
  "pagination": {
    "total": 123673,
    "limit": 12,
    "offset": 0,
    "total_pages": 10307,
    "current_page": 1,
    "next_url": "https:\/\/api.artic.edu\/api\/v1\/artworks?page=2"
  },
  "data": [
    {
      "id": 9475,
      "api_model": "artworks",
      "api_link": "https:\/\/api.artic.edu\/api\/v1\/artworks\/9475",
      "is_boosted": false,
      "title": "The Rat Catcher",
      "alt_titles": null,
      "thumbnail": {
        "lqip": "data:image\/gif;base64,R0lGODlhBAAFAPQAADo2MT06NEhFP09LQ1hUSllVTVpVTV9bUWJeUmZiV2lkWGplWW1oXHBqX3RvYnt1Z3x3aomDcoqFdAAAAAAAAAAAAAAAAAAAAAAAAAAAAAAAAAAAAAAAAAAAAAAAAAAAACH5BAAAAAAALAAAAAAEAAUAAAURoJQUTLQkh4I4EBAQzyAYTQgAOw==",
        "width": 2549,
        "height": 3000,
        "alt_text": "A work made of etching and engraving on paper."
      },
      "main_reference_number": "1923.1053",
      "has_not_been_viewed_much": true,
      "boost_rank": null,
      "date_start": 1655,
      "date_end": 1655,
      "date_display": "1655",
      "date_qualifier_title": "Artist's working dates",
      "date_qualifier_id": 15,
      "artist_display": "Cornelis Visscher\nDutch, c. 1629-1658",
      "place_of_origin": "Holland",
      "description": null,
      "dimensions": "Sheet; trimmed: 27 \u00d7 31.2 cm (10 11\/16 \u00d7 12 5\/16 in.)",
      "dimensions_detail": [
        {
          "depth_cm": 0,
          "depth_in": 0,
          "width_cm": 31.2,
          "width_in": 12.2835,
          "height_cm": 27,
          "height_in": 10.63,
          "diameter_cm": 0,
          "diameter_in": 0,
          "clarification": "Sheet; trimmed"
        }
      ],
      "medium_display": "Etching and engraving on paper",
      "inscriptions": "Recto: inscribed in pen and ink LR \"AB\", the collector's mark of A. Bourduge (France, ca. 1800; Lugt 70)\nVerso: inscribed in pen and ink \"AB\", the collector's mark of A. Bourduge (France, ca. 1800; Lugt 70)",
      "credit_line": "Gift of Horace S. Oakley",
      "catalogue_display": "<p>Hollstein 50 ii\/vi<\/p>",
      "publication_history": null,
      "exhibition_history": null,
      "provenance_text": null,
      "edition": null,
      "publishing_verification_level": "Web Cataloged",
      "internal_department_id": 3,
      "fiscal_year": 1924,
      "fiscal_year_deaccession": null,
      "is_public_domain": true,
      "is_zoomable": true,
      "max_zoom_window_size": -1,
      "copyright_notice": null,
      "has_multimedia_resources": false,
      "has_educational_resources": false,
      "has_advanced_imaging": false,
      "colorfulness": 11.8978,
      "color": {
        "h": 40,
        "l": 47,
        "s": 10,
        "percentage": 0.07581410477174454,
        "population": 634
      },
      "latitude": null,
      "longitude": null,
      "latlon": null,
      "is_on_view": false,
      "on_loan_display": null,
      "gallery_title": null,
      "gallery_id": null,
      "nomisma_id": null,
      "artwork_type_title": "Print",
      "artwork_type_id": 18,
      "department_title": "Prints and Drawings",
      "department_id": "PC-13",
      "artist_id": 37165,
      "artist_title": "Cornelis Visscher, the Elder",
      "alt_artist_ids": [],
      "artist_ids": [
        37165
      ],
      "artist_titles": [
        "Cornelis Visscher, the Elder"
      ],
      "category_ids": [
        "PC-13"
      ],
      "category_titles": [
        "Prints and Drawings"
      ],
      "term_titles": [
        "engraving",
        "paper (fiber product)",
        "print",
        "prints and drawing"
      ],
      "style_id": null,
      "style_title": null,
      "alt_style_ids": [],
      "style_ids": [],
      "style_titles": [],
      "classification_id": "TM-12",
      "classification_title": "engraving",
      "alt_classification_ids": [
        "TM-17",
        "TM-4"
      ],
      "classification_ids": [
        "TM-12",
        "TM-17",
        "TM-4"
      ],
      "classification_titles": [
        "engraving",
        "print",
        "prints and drawing"
      ],
      "subject_id": null,
      "alt_subject_ids": [],
      "subject_ids": [],
      "subject_titles": [],
      "material_id": "TM-2982",
      "alt_material_ids": [],
      "material_ids": [
        "TM-2982"
      ],
      "material_titles": [
        "paper (fiber product)"
      ],
      "technique_id": null,
      "alt_technique_ids": [],
      "technique_ids": [],
      "technique_titles": [],
      "theme_titles": [],
      "image_id": "15350f88-5fcf-c506-4bca-514acec61fc3",
      "alt_image_ids": [],
      "document_ids": [],
      "sound_ids": [],
      "video_ids": [],
      "text_ids": [],
      "section_ids": [],
      "section_titles": [],
      "site_ids": [],
      "suggest_autocomplete_all": [
        {
          "input": [
            "1923.1053"
          ],
          "contexts": {
            "groupings": [
              "accession"
            ]
          }
        },
        {
          "input": [
            "The Rat Catcher"
          ],
          "weight": 74,
          "contexts": {
            "groupings": [
              "title"
            ]
          }
        }
      ],
      "source_updated_at": "2023-12-13T10:14:09-06:00",
      "updated_at": "2023-12-13T10:16:07-06:00",
      "timestamp": "2023-12-13T10:39:56-06:00"
    },
    {
      "id": 9474,
      "api_model": "artworks",
      "api_link": "https:\/\/api.artic.edu\/api\/v1\/artworks\/9474",
      "is_boosted": false,
      "title": "The Bohemian Woman",
      "alt_titles": null,
      "thumbnail": {
        "lqip": "data:image\/gif;base64,R0lGODlhBAAFAPQAAGpmXW9qYXl0bHp1bIF9c4yHfoyIfY6KgJWQhZiUiaKekqOek6SflKaglqukmrGroLCrobSvo7Wwo8C7rgAAAAAAAAAAAAAAAAAAAAAAAAAAAAAAAAAAAAAAAAAAAAAAACH5BAAAAAAALAAAAAAEAAUAAAUR4OM00CQZSYQcSgAQjDAUSwgAOw==",
        "width": 2541,
        "height": 3000,
        "alt_text": "A work made of engraving on ivory laid paper."
      },
      "main_reference_number": "1923.1052",
      "has_not_been_viewed_much": true,
      "boost_rank": null,
      "date_start": 1651,
      "date_end": 1658,
      "date_display": "c. 1656-58",
      "date_qualifier_title": "",
      "date_qualifier_id": null,
      "artist_display": "Cornelis Visscher\nDutch, c. 1629-1658",
      "place_of_origin": "Holland",
      "description": "<p>Unlike his contemporaries in 17th-century Holland, Cornelis Visscher adopted engraving rather than etching as his main form of artistic production. Viewed as a master of the complex technique, he made works that were praised and collected. The peasants shown in Visscher\u2019s scenes are both rugged and nearly facetious. His <em>Bohemian Woman<\/em> depicts a mother acting as a balance beam for three animated children\u2014all demanding some form of attention from her. The combination of her exposed breast with suckling infant, approaching hunters, and an oddly placed whimsical backdrop is disconcerting but simultaneously all the more intriguing in its incongruity.<\/p>\n",
      "dimensions": "Plate: 37.4 \u00d7 31.8 cm (14 3\/4 \u00d7 12 9\/16 in.); Sheet: 38.8 \u00d7 32.9 cm (15 5\/16 \u00d7 13 in.)",
      "dimensions_detail": [
        {
          "depth_cm": 0,
          "depth_in": 0,
          "width_cm": 31.8,
          "width_in": 12.5197,
          "height_cm": 37.4,
          "height_in": 14.7245,
          "diameter_cm": 0,
          "diameter_in": 0,
          "clarification": "Plate"
        },
        {
          "depth_cm": 0,
          "depth_in": 0,
          "width_cm": 32.9,
          "width_in": 12.9528,
          "height_cm": 38.8,
          "height_in": 15.2756,
          "diameter_cm": 0,
          "diameter_in": 0,
          "clarification": "Sheet"
        }
      ],
      "medium_display": "Engraving on ivory laid paper",
      "inscriptions": "Verso: stamped with the collector's marks of Arkady Alferoff (Bonn, 1811-1872; Lugt 1727); of Joseph Pricken (Cologne, d. 1877; Lugt 2049); of Rudolf Peltzer (Cologne, 1825-1910; Lugt 2231); and an unidentified mark (Lugt 796)",
      "credit_line": "Gift of Horace S. Oakley",
      "catalogue_display": "<p>Hollstein 49 iv\/v<\/p>",
      "publication_history": null,
      "exhibition_history": null,
      "provenance_text": null,
      "edition": null,
      "publishing_verification_level": "Web Cataloged",
      "internal_department_id": 3,
      "fiscal_year": 1924,
      "fiscal_year_deaccession": null,
      "is_public_domain": true,
      "is_zoomable": true,
      "max_zoom_window_size": -1,
      "copyright_notice": null,
      "has_multimedia_resources": false,
      "has_educational_resources": false,
      "has_advanced_imaging": false,
      "colorfulness": 9.1812,
      "color": {
        "h": 39,
        "l": 47,
        "s": 12,
        "percentage": 0.02646685384216456,
        "population": 222
      },
      "latitude": null,
      "longitude": null,
      "latlon": null,
      "is_on_view": false,
      "on_loan_display": null,
      "gallery_title": null,
      "gallery_id": null,
      "nomisma_id": null,
      "artwork_type_title": "Print",
      "artwork_type_id": 18,
      "department_title": "Prints and Drawings",
      "department_id": "PC-13",
      "artist_id": 37165,
      "artist_title": "Cornelis Visscher, the Elder",
      "alt_artist_ids": [],
      "artist_ids": [
        37165
      ],
      "artist_titles": [
        "Cornelis Visscher, the Elder"
      ],
      "category_ids": [
        "PC-13"
      ],
      "category_titles": [
        "Prints and Drawings"
      ],
      "term_titles": [
        "engraving",
        "paper (fiber product)",
        "print",
        "prints and drawing"
      ],
      "style_id": null,
      "style_title": null,
      "alt_style_ids": [],
      "style_ids": [],
      "style_titles": [],
      "classification_id": "TM-12",
      "classification_title": "engraving",
      "alt_classification_ids": [
        "TM-17",
        "TM-4"
      ],
      "classification_ids": [
        "TM-12",
        "TM-17",
        "TM-4"
      ],
      "classification_titles": [
        "engraving",
        "print",
        "prints and drawing"
      ],
      "subject_id": null,
      "alt_subject_ids": [],
      "subject_ids": [],
      "subject_titles": [],
      "material_id": "TM-2982",
      "alt_material_ids": [],
      "material_ids": [
        "TM-2982"
      ],
      "material_titles": [
        "paper (fiber product)"
      ],
      "technique_id": null,
      "alt_technique_ids": [],
      "technique_ids": [],
      "technique_titles": [],
      "theme_titles": [],
      "image_id": "57744f4d-a23b-151d-b168-bc32a116def0",
      "alt_image_ids": [],
      "document_ids": [],
      "sound_ids": [],
      "video_ids": [],
      "text_ids": [],
      "section_ids": [],
      "section_titles": [],
      "site_ids": [],
      "suggest_autocomplete_all": [
        {
          "input": [
            "1923.1052"
          ],
          "contexts": {
            "groupings": [
              "accession"
            ]
          }
        },
        {
          "input": [
            "The Bohemian Woman"
          ],
          "weight": 134,
          "contexts": {
            "groupings": [
              "title"
            ]
          }
        }
      ],
      "source_updated_at": "2023-12-13T10:14:09-06:00",
      "updated_at": "2023-12-13T10:16:07-06:00",
      "timestamp": "2023-12-13T10:39:56-06:00"
    }
  ],
  "info": {
    "license_text": "The `description` field in this response is licensed under a Creative Commons Attribution 4.0 Generic License (CC-By) and the Terms and Conditions of artic.edu. All other data in this response is licensed under a Creative Commons Zero (CC0) 1.0 designation and the Terms and Conditions of artic.edu.",
    "license_links": [
      "https:\/\/creativecommons.org\/publicdomain\/zero\/1.0\/",
      "https:\/\/www.artic.edu\/terms"
    ],
    "version": "1.9"
  },
  "config": {
    "iiif_url": "https:\/\/www.artic.edu\/iiif\/2",
    "website_url": "http:\/\/www.artic.edu"
  }
}